{
  "parent": "good_nights_sleep:dream/dream",
  "display": {
    "icon": {
      "item": "good_nights_sleep:baby_creeper_spawn_egg"
    },
    "title": {
          "translate": "advancements.good_nights_sleep.kill_baby_creeper.title"
        },
        "description": {
            "translate": "advancements.good_nights_sleep.kill_baby_creeper.desc"
        }
  },
  "criteria": {
    "criteria": {
      "trigger": "minecraft:player_killed_entity",
      "conditions": {
        "entity": {
          "type": "good_nights_sleep:baby_creeper"
        }
      }
    }
  }
}