{
    "variants": {
        "age=0": { "model": "good_nights_sleep:block/rainbow_crop_0" },
        "age=1": { "model": "good_nights_sleep:block/rainbow_crop_1" },
        "age=2": { "model": "good_nights_sleep:block/rainbow_crop_2" },
        "age=3": { "model": "good_nights_sleep:block/rainbow_crop_3" }
    }
}
