{
  "parent": "good_nights_sleep:nightmare/kill_tormenter",
  "display": {
    "icon": {
      "item": "good_nights_sleep:negatite_sword"
    },
    "title": {
          "translate": "advancements.good_nights_sleep.kill_herobrine.title"
        },
        "description": {
            "translate": "advancements.good_nights_sleep.kill_herobrine.desc"
        },
    "frame": "challenge"
  },
  "criteria": {
    "criteria": {
      "trigger": "minecraft:player_killed_entity",
      "conditions": {
        "entity": {
          "type": "good_nights_sleep:herobrine"
        }
      }
    }
  }
}