{
  "replace": false,
  "values": [
    "#good_nights_sleep:storage_blocks/candy",
    "#good_nights_sleep:storage_blocks/rainbow",
    "#good_nights_sleep:storage_blocks/positite",
    "#good_nights_sleep:storage_blocks/necrum",
    "#good_nights_sleep:storage_blocks/zitrite",
    "#good_nights_sleep:storage_blocks/negatite"
  ]
}