{
  "type": "minecraft:crafting_shaped",
  "pattern": [
    "# #",
    "###",
    "###"
  ],
  "key": {
    "#": {
      "tag": "good_nights_sleep:storage_blocks/candy"
    }
  },
  "result": {
    "item": "good_nights_sleep:candy_chestplate"
  }
}