{
  "type": "minecraft:crafting_shaped",
  "group": "wooden_fence",
  "pattern": [
    "PSP",
    "PSP"
  ],
  "key": {
    "P": {
      "item": "good_nights_sleep:dream_planks"
    },
    "S": {
      "tag": "forge:rods/wooden"
    }
  },
  "result": {
    "item": "good_nights_sleep:dream_fence",
    "count": 3
  }
}