{
  "type": "minecraft:crafting_shaped",
  "pattern": [
    "XX",
    "X#",
    " #"
  ],
  "key": {
    "#": {
      "item": "minecraft:stick"
    },
    "X": {
      "tag": "good_nights_sleep:gems/positite"
    }
  },
  "result": {
    "item": "good_nights_sleep:positite_axe"
  }
}